…
```r
dat1 %>% 
  select(-Smoke)
```

```
## # A tibble: 654 x 4
##      Age LungCap Height Gender
##    <int>   <dbl>  <dbl> <chr> 
##  1     9    3.12   57   female
##  2     8    3.17   67.5 female
##  3     7    3.16   54.5 female
##  4     9    2.67   53   male  
##  5     9    3.68   57   male  
##  6     8    5.01   61   female
##  7     6    3.76   58   female
##  8     6    2.24   56   female
##  9     8    3.96   58.5 female
## 10     9    3.83   60   female
## # … with 644 more rows
```
…
### `select` helpers

Se muestran diferentes usos y resultados de usar `select` helpers para facilidad de seleccion de columnas que cumplan con ciertos criterios. A su vez, se ejemplifica el renombrar las columnas durante la seleccion o usando `rename` (nuevo_nombre = nombre_actual). Un operador especial es `everything()` que selecciona todo; esto es util cuando se quiere reordenar y poner una o varias columnas de primero y despues el resto sin tener que escribir todos los nombres.


```r
select(storms, name:pressure) # columnas desde name hasta pressure
```

```
## # A tibble: 10,010 x 11
##    name   year month   day  hour   lat  long status      category  wind pressure
##    <chr> <dbl> <dbl> <int> <dbl> <dbl> <dbl> <chr>       <ord>    <int>    <int>
##  1 Amy    1975     6    27     0  27.5 -79   tropical d… -1          25     1013
##  2 Amy    1975     6    27     6  28.5 -79   tropical d… -1          25     1013
##  3 Amy    1975     6    27    12  29.5 -79   tropical d… -1          25     1013
##  4 Amy    1975     6    27    18  30.5 -79   tropical d… -1          25     1013
##  5 Amy    1975     6    28     0  31.5 -78.8 tropical d… -1          25     1012
##  6 Amy    1975     6    28     6  32.4 -78.7 tropical d… -1          25     1012
##  7 Amy    1975     6    28    12  33.3 -78   tropical d… -1          25     1011
##  8 Amy    1975     6    28    18  34   -77   tropical d… -1          30     1006
##  9 Amy    1975     6    29     0  34.4 -75.8 tropical s… 0           35     1004
## 10 Amy    1975     6    29     6  34   -74.8 tropical s… 0           40     1002
## # … with 10,000 more rows
```

```r
storms %>% 
  select(-c(name, pressure)) # columnas menos name y pressure
```

```
## # A tibble: 10,010 x 11
##     year month   day  hour   lat  long status category  wind ts_diameter
##    <dbl> <dbl> <int> <dbl> <dbl> <dbl> <chr>  <ord>    <int>       <dbl>
##  1  1975     6    27     0  27.5 -79   tropi… -1          25          NA
##  2  1975     6    27     6  28.5 -79   tropi… -1          25          NA
##  3  1975     6    27    12  29.5 -79   tropi… -1          25          NA
##  4  1975     6    27    18  30.5 -79   tropi… -1          25          NA
##  5  1975     6    28     0  31.5 -78.8 tropi… -1          25          NA
##  6  1975     6    28     6  32.4 -78.7 tropi… -1          25          NA
##  7  1975     6    28    12  33.3 -78   tropi… -1          25          NA
##  8  1975     6    28    18  34   -77   tropi… -1          30          NA
##  9  1975     6    29     0  34.4 -75.8 tropi… 0           35          NA
## 10  1975     6    29     6  34   -74.8 tropi… 0           40          NA
## # … with 10,000 more rows, and 1 more variable: hu_diameter <dbl>
```
…
```r
storms %>% 
  select(contains("d")) # columnas que contienen 'd'
```

```
## # A tibble: 10,010 x 4
##      day  wind ts_diameter hu_diameter
##    <int> <int>       <dbl>       <dbl>
##  1    27    25          NA          NA
##  2    27    25          NA          NA
##  3    27    25          NA          NA
##  4    27    25          NA          NA
##  5    28    25          NA          NA
##  6    28    25          NA          NA
##  7    28    25          NA          NA
##  8    28    30          NA          NA
##  9    29    35          NA          NA
## 10    29    40          NA          NA
## # … with 10,000 more rows
```
…
```r
babynames %>% 
  filter(name %in% c("Acura", "Lexus", "Yugo"))
```

```
## # A tibble: 57 x 5
##     year sex   name      n       prop
##    <dbl> <chr> <chr> <int>      <dbl>
##  1  1990 F     Lexus    36 0.0000175 
##  2  1990 M     Lexus    12 0.00000558
##  3  1991 F     Lexus   102 0.0000502 
##  4  1991 M     Lexus    16 0.00000755
##  5  1992 F     Lexus   193 0.0000963 
##  6  1992 M     Lexus    25 0.0000119 
##  7  1993 F     Lexus   285 0.000145  
##  8  1993 M     Lexus    30 0.0000145 
##  9  1994 F     Lexus   381 0.000195  
## 10  1994 F     Acura     6 0.00000308
## # … with 47 more rows
```
…
```r
gss_cat %>% 
  arrange(marital)
```

```
## # A tibble: 21,483 x 9
##     year marital    age race  rincome     partyid      relig   denom     tvhours
##    <int> <fct>    <int> <fct> <fct>       <fct>        <fct>   <fct>       <int>
##  1  2000 No answ…    28 Other $10000 - 1… Ind,near dem Buddhi… Not appl…       2
##  2  2006 No answ…    NA White Not applic… Strong repu… Protes… Other          NA
##  3  2006 No answ…    NA White No answer   Strong repu… None    Not appl…       2
##  4  2006 No answ…    63 White No answer   Strong demo… None    Not appl…      NA
##  5  2006 No answ…    40 Other $20000 - 2… Not str dem… Protes… No denom…      NA
##  6  2006 No answ…    45 White No answer   No answer    No ans… No answer      NA
##  7  2006 No answ…    NA White No answer   No answer    No ans… No answer      NA
##  8  2008 No answ…    62 White Not applic… Strong demo… Protes… Episcopal      NA
##  9  2008 No answ…    43 White No answer   Independent  Christ… No denom…       1
## 10  2008 No answ…    50 White No answer   Ind,near dem Protes… Other           4
## # … with 21,473 more rows
```
…
Se pueden crear variables nuevas que dependen de otra en la tabla. En el ejemplo se calcula la altura en centimetros a partir de la altura en pulgadas (1 pulgada = 2.54 cm)


```r
dat1 %>% 
  mutate(Altura = Height*2.54)
```

```
## # A tibble: 654 x 6
##      Age LungCap Height Gender Smoke Altura
##    <int>   <dbl>  <dbl> <chr>  <chr>  <dbl>
##  1     9    3.12   57   female no      145.
##  2     8    3.17   67.5 female no      171.
##  3     7    3.16   54.5 female no      138.
##  4     9    2.67   53   male   no      135.
##  5     9    3.68   57   male   no      145.
##  6     8    5.01   61   female no      155.
##  7     6    3.76   58   female no      147.
##  8     6    2.24   56   female no      142.
##  9     8    3.96   58.5 female no      149.
## 10     9    3.83   60   female no      152.
## # … with 644 more rows
```
…
```r
airquality %>% 
  as_tibble()
```

```
## # A tibble: 153 x 6
##    Ozone Solar.R  Wind  Temp Month   Day
##    <int>   <int> <dbl> <int> <int> <int>
##  1    41     190   7.4    67     5     1
##  2    36     118   8      72     5     2
##  3    12     149  12.6    74     5     3
##  4    18     313  11.5    62     5     4
##  5    NA      NA  14.3    56     5     5
##  6    28      NA  14.9    66     5     6
##  7    23     299   8.6    65     5     7
##  8    19      99  13.8    59     5     8
##  9     8      19  20.1    61     5     9
## 10    NA     194   8.6    69     5    10
## # … with 143 more rows
```

## Conteo de variables cualitativas

Para contar casos de variables discretas de una manera mas expedita se puede usar `count`. Esta funcion realiza un agrupamiento (`group_by`) y resumen (`summarise`) a la vez.


```r
mpg %>% 
  count(manufacturer, year)
```

```
## # A tibble: 30 x 3
##    manufacturer  year     n
##    <chr>        <int> <int>
##  1 audi          1999     9
##  2 audi          2008     9
##  3 chevrolet     1999     7
##  4 chevrolet     2008    12
##  5 dodge         1999    16
##  6 dodge         2008    21
##  7 ford          1999    15
##  8 ford          2008    10
##  9 honda         1999     5
## 10 honda         2008     4
## # … with 20 more rows
```
…
Un tipo de union es `left_join(x, y)`, donde se unen los datos de la tabla de la derecha (`y`) a la de la izquierda (`x`) de acuerdo a una columna en comun, y manteniendo todas las observaciones de `x`.


```r
flights %>% 
  left_join(airlines)
```

```
## Joining, by = "carrier"
```

```
## # A tibble: 336,776 x 20
##     year month   day dep_time sched_dep_time dep_delay arr_time sched_arr_time
##    <int> <int> <int>    <int>          <int>     <dbl>    <int>          <int>
##  1  2013     1     1      517            515         2      830            819
##  2  2013     1     1      533            529         4      850            830
##  3  2013     1     1      542            540         2      923            850
##  4  2013     1     1      544            545        -1     1004           1022
##  5  2013     1     1      554            600        -6      812            837
##  6  2013     1     1      554            558        -4      740            728
##  7  2013     1     1      555            600        -5      913            854
##  8  2013     1     1      557            600        -3      709            723
##  9  2013     1     1      557            600        -3      838            846
## 10  2013     1     1      558            600        -2      753            745
## # … with 336,766 more rows, and 12 more variables: arr_delay <dbl>,
## #   carrier <chr>, flight <int>, tailnum <chr>, origin <chr>, dest <chr>,
## #   air_time <dbl>, distance <dbl>, hour <dbl>, minute <dbl>, time_hour <dttm>,
## #   name <chr>
```

```r
flights %>% 
  left_join(airports, c("dest" = "faa"))
```

```
## # A tibble: 336,776 x 26
##     year month   day dep_time sched_dep_time dep_delay arr_time sched_arr_time
##    <int> <int> <int>    <int>          <int>     <dbl>    <int>          <int>
##  1  2013     1     1      517            515         2      830            819
##  2  2013     1     1      533            529         4      850            830
##  3  2013     1     1      542            540         2      923            850
##  4  2013     1     1      544            545        -1     1004           1022
##  5  2013     1     1      554            600        -6      812            837
##  6  2013     1     1      554            558        -4      740            728
##  7  2013     1     1      555            600        -5      913            854
##  8  2013     1     1      557            600        -3      709            723
##  9  2013     1     1      557            600        -3      838            846
## 10  2013     1     1      558            600        -2      753            745
## # … with 336,766 more rows, and 18 more variables: arr_delay <dbl>,
## #   carrier <chr>, flight <int>, tailnum <chr>, origin <chr>, dest <chr>,
## #   air_time <dbl>, distance <dbl>, hour <dbl>, minute <dbl>, time_hour <dttm>,
## #   name <chr>, lat <dbl>, lon <dbl>, alt <int>, tz <dbl>, dst <chr>,
## #   tzone <chr>
```
…
