…
De manera similar al caso 1, se genera un modelo lineal para cada pais en funcion de la expectativa de vida ('lifeExp') por anho ('year'), y adicionalmente se calcula el coeficiente de determinacion ($R^2$) para cada modelo lineal.


```r
gap_nest = gap_nest %>% 
  mutate(mod = map(data, ~lm(lifeExp ~ year, data = .x))) %>% 
  mutate(r2 = map_dbl(mod, ~glance(.) %>% pull(r.squared)))
gap_nest
```

```
## # A tibble: 142 x 4
## # Groups:   country [142]
##    country     data              mod       r2
##    <fct>       <list>            <list> <dbl>
##  1 Afghanistan <tibble [12 × 5]> <lm>   0.948
##  2 Albania     <tibble [12 × 5]> <lm>   0.911
##  3 Algeria     <tibble [12 × 5]> <lm>   0.985
##  4 Angola      <tibble [12 × 5]> <lm>   0.888
##  5 Argentina   <tibble [12 × 5]> <lm>   0.996
##  6 Australia   <tibble [12 × 5]> <lm>   0.980
##  7 Austria     <tibble [12 × 5]> <lm>   0.992
##  8 Bahrain     <tibble [12 × 5]> <lm>   0.967
##  9 Bangladesh  <tibble [12 × 5]> <lm>   0.989
## 10 Belgium     <tibble [12 × 5]> <lm>   0.995
## # … with 132 more rows
```
…
