Capítulo 3 Funcionamiento avanzado de R | Geología Numérica: Ciencia de Datos para Geociencias
…
## # A tibble: 2 x 5
##   Gender Age_mean Height_mean Age_sd Height_sd
##   <chr>     <dbl>       <dbl>  <dbl>     <dbl>
## 1 female     9.84        60.2   2.93      4.79
## 2 male      10.0         62.0   2.98      6.33

Aquí se muestra la selección de variables, que resulta en un reordenamiento de las mismas. Así mismo se puede deseleccionar lo que no se quiere, usando - para indicar las columnas que no se quieren.

airquality %>% 
  select(Temp,Wind,Ozone)

## # A tibble: 153 x 3
##     Temp  Wind Ozone
##    <int> <dbl> <int>
##  1    67   7.4    41
##  2    72   8      36
##  3    74  12.6    12
##  4    62  11.5    18
##  5    56  14.3    NA
##  6    66  14.9    28
##  7    65   8.6    23
##  8    59  13.8    19
##  9    61  20.1     8
## 10    69   8.6    NA
## # … with 143 more rows

dat1 %>% 
  select(-Smoke)

## # A tibble: 654 x 4
##      Age LungCap Height Gender
##    <int>   <dbl>  <dbl> <chr> 
##  1     9    3.12   57   female
##  2     8    3.17   67.5 female
##  3     7    3.16   54.5 female
##  4     9    2.67   53   male  
##  5     9    3.68   57   male  
##  6     8    5.01   61   female
##  7     6    3.76   58   female
##  8     6    2.24   56   female
##  9     8    3.96   58.5 female
## 10     9    3.83   60   female
## # … with 644 more rows
…
3.5.1 select helpers

Se muestran diferentes usos y resultados de usar select helpers para facilidad de selección de columnas que cumplan con ciertos criterios. A su vez, se ejemplifica el renombrar las columnas durante la selección o usando rename (nuevo_nombre = nombre_actual). Un operador especial es everything() que selecciona todo; esto es útil cuando se quiere reordenar y poner una o varias columnas de primero y después el resto sin tener que escribir todos los nombres.

select(storms, name:pressure) # columnas desde name hasta pressure

## # A tibble: 10,010 x 11
##    name   year month   day  hour   lat  long status      category  wind pressure
##    <chr> <dbl> <dbl> <int> <dbl> <dbl> <dbl> <chr>       <ord>    <int>    <int>
##  1 Amy    1975     6    27     0  27.5 -79   tropical d… -1          25     1013
##  2 Amy    1975     6    27     6  28.5 -79   tropical d… -1          25     1013
##  3 Amy    1975     6    27    12  29.5 -79   tropical d… -1          25     1013
##  4 Amy    1975     6    27    18  30.5 -79   tropical d… -1          25     1013
##  5 Amy    1975     6    28     0  31.5 -78.8 tropical d… -1          25     1012
##  6 Amy    1975     6    28     6  32.4 -78.7 tropical d… -1          25     1012
##  7 Amy    1975     6    28    12  33.3 -78   tropical d… -1          25     1011
##  8 Amy    1975     6    28    18  34   -77   tropical d… -1          30     1006
##  9 Amy    1975     6    29     0  34.4 -75.8 tropical s… 0           35     1004
## 10 Amy    1975     6    29     6  34   -74.8 tropical s… 0           40     1002
## # … with 10,000 more rows

storms %>% 
  select(-c(name, pressure)) # columnas menos name y pressure

## # A tibble: 10,010 x 11
##     year month   day  hour   lat  long status category  wind ts_diameter
##    <dbl> <dbl> <int> <dbl> <dbl> <dbl> <chr>  <ord>    <int>       <dbl>
##  1  1975     6    27     0  27.5 -79   tropi… -1          25          NA
##  2  1975     6    27     6  28.5 -79   tropi… -1          25          NA
##  3  1975     6    27    12  29.5 -79   tropi… -1          25          NA
##  4  1975     6    27    18  30.5 -79   tropi… -1          25          NA
##  5  1975     6    28     0  31.5 -78.8 tropi… -1          25          NA
##  6  1975     6    28     6  32.4 -78.7 tropi… -1          25          NA
##  7  1975     6    28    12  33.3 -78   tropi… -1          25          NA
##  8  1975     6    28    18  34   -77   tropi… -1          30          NA
##  9  1975     6    29     0  34.4 -75.8 tropi… 0           35          NA
## 10  1975     6    29     6  34   -74.8 tropi… 0           40          NA
## # … with 10,000 more rows, and 1 more variable: hu_diameter <dbl>

iris %>% 
  select(starts_with("Sepal")) # columnas que empiezan con 'Sepal'

## # A tibble: 150 x 2
##    Sepal.Length Sepal.Width
##           <dbl>       <dbl>
##  1          5.1         3.5
##  2          4.9         3  
##  3          4.7         3.2
##  4          4.6         3.1
##  5          5           3.6
##  6          5.4         3.9
##  7          4.6         3.4
##  8          5           3.4
##  9          4.4         2.9
## 10          4.9         3.1
## # … with 140 more rows

iris %>% 
  select(ends_with("Width")) # columnas que terminan con 'Width'

## # A tibble: 150 x 2
##    Sepal.Width Petal.Width
##          <dbl>       <dbl>
##  1         3.5         0.2
##  2         3           0.2
##  3         3.2         0.2
##  4         3.1         0.2
##  5         3.6         0.2
##  6         3.9         0.4
##  7         3.4         0.3
##  8         3.4         0.2
##  9         2.9         0.2
## 10         3.1         0.1
## # … with 140 more rows

storms %>% 
  select(contains("d")) # columnas que contienen 'd'

## # A tibble: 10,010 x 4
##      day  wind ts_diameter hu_diameter
##    <int> <int>       <dbl>       <dbl>
##  1    27    25          NA          NA
##  2    27    25          NA          NA
##  3    27    25          NA          NA
##  4    27    25          NA          NA
##  5    28    25          NA          NA
##  6    28    25          NA          NA
##  7    28    25          NA          NA
##  8    28    30          NA          NA
##  9    29    35          NA          NA
## 10    29    40          NA          NA
## # … with 10,000 more rows

iris %>% 
  select(Especie = Species, everything()) # renombrar seleccion y seleccionar el resto

## # A tibble: 150 x 5
##    Especie Sepal.Length Sepal.Width Petal.Length Petal.Width
##    <fct>          <dbl>       <dbl>        <dbl>       <dbl>
##  1 setosa           5.1         3.5          1.4         0.2
##  2 setosa           4.9         3            1.4         0.2
##  3 setosa           4.7         3.2          1.3         0.2
##  4 setosa           4.6         3.1          1.5         0.2
##  5 setosa           5           3.6          1.4         0.2
##  6 setosa           5.4         3.9          1.7         0.4
##  7 setosa           4.6         3.4          1.4         0.3
##  8 setosa           5           3.4          1.5         0.2
##  9 setosa           4.4         2.9          1.4         0.2
## 10 setosa           4.9         3.1          1.5         0.1
## # … with 140 more rows

iris %>% 
  rename(Especie = Species) # renombrar columna

## # A tibble: 150 x 5
##    Sepal.Length Sepal.Width Petal.Length Petal.Width Especie
##           <dbl>       <dbl>        <dbl>       <dbl> <fct>  
##  1          5.1         3.5          1.4         0.2 setosa 
##  2          4.9         3            1.4         0.2 setosa 
##  3          4.7         3.2          1.3         0.2 setosa 
##  4          4.6         3.1          1.5         0.2 setosa 
##  5          5           3.6          1.4         0.2 setosa 
##  6          5.4         3.9          1.7         0.4 setosa 
##  7          4.6         3.4          1.4         0.3 setosa 
##  8          5           3.4          1.5         0.2 setosa 
##  9          4.4         2.9          1.4         0.2 setosa 
## 10          4.9         3.1          1.5         0.1 setosa 
## # … with 140 more rows
…
Para filtrar observaciones de acuerdo a uno a varios criterios se usa la función filter, así como operadores lógicos y funciones auxiliares.

Funciones que ayudan a filtrar observaciones son las mismas de los Operadores lógicos.

Dos de las funciones auxiliares más útiles son:

between(x,left,right) que filtra observaciones para la variable x que se encuentren entre left (limite inferior) y right (limite superior); esta es más útil para variables numéricas,

x %in% c(a,b,c) que filtra observaciones para la variable x que se encuentren en el vector c(a,b,c); esta es más útil para variables de texto o factor

Se muestran diferentes ejemplos de como filtrar observaciones. Cuando se requiere que una observación cumpla varios criterios, estas condiciones se pueden separar por medio de comas (,), que es lo mismo que usar el operador lógico &. Si se requiere una u otra condición se puede usar el operador lógico |, pero en ese caso y dependiendo de lo deseado es mejor usar between() o %in%.

filter(airquality,Temp > 85)

## # A tibble: 34 x 6
##    Ozone Solar.R  Wind  Temp Month   Day
##    <int>   <int> <dbl> <int> <int> <int>
##  1    NA     273   6.9    87     6     8
##  2    71     291  13.8    90     6     9
##  3    39     323  11.5    87     6    10
##  4    NA     259  10.9    93     6    11
##  5    NA     250   9.2    92     6    12
##  6    77     276   5.1    88     7     7
##  7    97     267   6.3    92     7     8
##  8    97     272   5.7    92     7     9
##  9    85     175   7.4    89     7    10
## 10    NA     291  14.9    91     7    14
## # … with 24 more rows

airquality %>% 
  filter(Temp > 85)

## # A tibble: 34 x 6
##    Ozone Solar.R  Wind  Temp Month   Day
##    <int>   <int> <dbl> <int> <int> <int>
##  1    NA     273   6.9    87     6     8
##  2    71     291  13.8    90     6     9
##  3    39     323  11.5    87     6    10
##  4    NA     259  10.9    93     6    11
##  5    NA     250   9.2    92     6    12
##  6    77     276   5.1    88     7     7
##  7    97     267   6.3    92     7     8
##  8    97     272   5.7    92     7     9
##  9    85     175   7.4    89     7    10
## 10    NA     291  14.9    91     7    14
## # … with 24 more rows

airquality %>% 
  filter(Temp > 75, Wind > 10)

## # A tibble: 38 x 6
##    Ozone Solar.R  Wind  Temp Month   Day
##    <int>   <int> <dbl> <int> <int> <int>
##  1    45     252  14.9    81     5    29
##  2    NA     264  14.3    79     6     6
##  3    71     291  13.8    90     6     9
##  4    39     323  11.5    87     6    10
##  5    NA     259  10.9    93     6    11
##  6    NA     332  13.8    80     6    14
##  7    NA     322  11.5    79     6    15
##  8    21     191  14.9    77     6    16
##  9    13     137  10.3    76     6    20
## 10    NA      98  11.5    80     6    28
## # … with 28 more rows

airquality %>% 
  filter(between(Temp, 70, 80))

## # A tibble: 53 x 6
##    Ozone Solar.R  Wind  Temp Month   Day
##    <int>   <int> <dbl> <int> <int> <int>
##  1    36     118   8      72     5     2
##  2    12     149  12.6    74     5     3
##  3     7      NA   6.9    74     5    11
##  4    11     320  16.6    73     5    22
##  5   115     223   5.7    79     5    30
##  6    37     279   7.4    76     5    31
##  7    NA     286   8.6    78     6     1
##  8    NA     287   9.7    74     6     2
##  9    NA     264  14.3    79     6     6
## 10    NA     332  13.8    80     6    14
## # … with 43 more rows

airquality %>% 
  filter(Temp > 75, Wind > 10) %>% 
  select(Ozone,Solar.R)

## # A tibble: 38 x 2
##    Ozone Solar.R
##    <int>   <int>
##  1    45     252
##  2    NA     264
##  3    71     291
##  4    39     323
##  5    NA     259
##  6    NA     332
##  7    NA     322
##  8    21     191
##  9    13     137
## 10    NA      98
## # … with 28 more rows

babynames %>% 
  filter(name %in% c("Acura", "Lexus", "Yugo"))

## # A tibble: 57 x 5
##     year sex   name      n       prop
##    <dbl> <chr> <chr> <int>      <dbl>
##  1  1990 F     Lexus    36 0.0000175 
##  2  1990 M     Lexus    12 0.00000558
##  3  1991 F     Lexus   102 0.0000502 
##  4  1991 M     Lexus    16 0.00000755
##  5  1992 F     Lexus   193 0.0000963 
##  6  1992 M     Lexus    25 0.0000119 
##  7  1993 F     Lexus   285 0.000145  
##  8  1993 M     Lexus    30 0.0000145 
##  9  1994 F     Lexus   381 0.000195  
## 10  1994 F     Acura     6 0.00000308
## # … with 47 more rows

3.7 Orden de acuerdo a variables

arrange se usa para ordenar los datos de acuerdo a una o más variables, donde por defecto lo hace de manera ascendente, para ordenarlos de manera descendente se encierra la variable dentro de desc(var). Si se ordena por una variable numérica se hará de menor a mayor o viceversa, si se ordena por una variable factor se hará de acuerdo al orden de los niveles del factor, y si se ordena por una variable de texto se hará por orden alfabético.

airquality %>% 
  arrange(Temp)

## # A tibble: 153 x 6
##    Ozone Solar.R  Wind  Temp Month   Day
##    <int>   <int> <dbl> <int> <int> <int>
##  1    NA      NA  14.3    56     5     5
##  2     6      78  18.4    57     5    18
##  3    NA      66  16.6    57     5    25
##  4    NA      NA   8      57     5    27
##  5    18      65  13.2    58     5    15
##  6    NA     266  14.9    58     5    26
##  7    19      99  13.8    59     5     8
##  8     1       8   9.7    59     5    21
##  9     8      19  20.1    61     5     9
## 10     4      25   9.7    61     5    23
## # … with 143 more rows

airquality %>% 
  arrange(desc(Temp))

## # A tibble: 153 x 6
##    Ozone Solar.R  Wind  Temp Month   Day
##    <int>   <int> <dbl> <int> <int> <int>
##  1    76     203   9.7    97     8    28
##  2    84     237   6.3    96     8    30
##  3   118     225   2.3    94     8    29
##  4    85     188   6.3    94     8    31
##  5    NA     259  10.9    93     6    11
##  6    73     183   2.8    93     9     3
##  7    91     189   4.6    93     9     4
##  8    NA     250   9.2    92     6    12
##  9    97     267   6.3    92     7     8
## 10    97     272   5.7    92     7     9
## # … with 143 more rows

gss_cat %>% 
  arrange(marital)

## # A tibble: 21,483 x 9
##     year marital    age race  rincome     partyid      relig   denom     tvhours
##    <int> <fct>    <int> <fct> <fct>       <fct>        <fct>   <fct>       <int>
##  1  2000 No answ…    28 Other $10000 - 1… Ind,near dem Buddhi… Not appl…       2
##  2  2006 No answ…    NA White Not applic… Strong repu… Protes… Other          NA
##  3  2006 No answ…    NA White No answer   Strong repu… None    Not appl…       2
##  4  2006 No answ…    63 White No answer   Strong demo… None    Not appl…      NA
##  5  2006 No answ…    40 Other $20000 - 2… Not str dem… Protes… No denom…      NA
##  6  2006 No answ…    45 White No answer   No answer    No ans… No answer      NA
##  7  2006 No answ…    NA White No answer   No answer    No ans… No answer      NA
##  8  2008 No answ…    62 White Not applic… Strong demo… Protes… Episcopal      NA
##  9  2008 No answ…    43 White No answer   Independent  Christ… No denom…       1
## 10  2008 No answ…    50 White No answer   Ind,near dem Protes… Other           4
## # … with 21,473 more rows
…
Se pueden crear variables nuevas que dependen de otra en la tabla. En el ejemplo se calcula la altura en centímetros a partir de la altura en pulgadas (1 pulgada = 2.54 cm)

dat1 %>% 
  mutate(Altura = Height*2.54)

## # A tibble: 654 x 6
##      Age LungCap Height Gender Smoke Altura
##    <int>   <dbl>  <dbl> <chr>  <chr>  <dbl>
##  1     9    3.12   57   female no      145.
##  2     8    3.17   67.5 female no      171.
##  3     7    3.16   54.5 female no      138.
##  4     9    2.67   53   male   no      135.
##  5     9    3.68   57   male   no      145.
##  6     8    5.01   61   female no      155.
##  7     6    3.76   58   female no      147.
##  8     6    2.24   56   female no      142.
##  9     8    3.96   58.5 female no      149.
## 10     9    3.83   60   female no      152.
## # … with 644 more rows
…
airq = airquality %>% 
  mutate(Month = factor(Month,
                        levels = 5:9,
                        labels = c("Mayo", "Junio", "Julio", 
                                   "Agosto", "Setiembre")),
         Sensation = case_when(Temp < 60 ~ 'Cold',
                               Temp < 70 ~ 'Cool',
                               Temp < 85 ~ 'Warm',
                               T ~ 'Hot') %>% 
           as.factor())
airq

## # A tibble: 153 x 7
##    Ozone Solar.R  Wind  Temp Month   Day Sensation
##    <int>   <int> <dbl> <int> <fct> <int> <fct>    
##  1    41     190   7.4    67 Mayo      1 Cool     
##  2    36     118   8      72 Mayo      2 Warm     
##  3    12     149  12.6    74 Mayo      3 Warm     
##  4    18     313  11.5    62 Mayo      4 Cool     
##  5    NA      NA  14.3    56 Mayo      5 Cold     
##  6    28      NA  14.9    66 Mayo      6 Cool     
##  7    23     299   8.6    65 Mayo      7 Cool     
##  8    19      99  13.8    59 Mayo      8 Cold     
##  9     8      19  20.1    61 Mayo      9 Cool     
## 10    NA     194   8.6    69 Mayo     10 Cool     
## # … with 143 more rows

airquality %>% 
  as_tibble()

## # A tibble: 153 x 6
##    Ozone Solar.R  Wind  Temp Month   Day
##    <int>   <int> <dbl> <int> <int> <int>
##  1    41     190   7.4    67     5     1
##  2    36     118   8      72     5     2
##  3    12     149  12.6    74     5     3
##  4    18     313  11.5    62     5     4
##  5    NA      NA  14.3    56     5     5
##  6    28      NA  14.9    66     5     6
##  7    23     299   8.6    65     5     7
##  8    19      99  13.8    59     5     8
##  9     8      19  20.1    61     5     9
## 10    NA     194   8.6    69     5    10
## # … with 143 more rows

3.9 Conteo de variables cualitativas

Para contar casos de variables discretas de una manera más expedita se puede usar count. Esta función realiza un agrupamiento (group_by) y resumen (summarise) a la vez.

mpg %>% 
  count(manufacturer, year)

## # A tibble: 30 x 3
##    manufacturer  year     n
##    <chr>        <int> <int>
##  1 audi          1999     9
##  2 audi          2008     9
##  3 chevrolet     1999     7
##  4 chevrolet     2008    12
##  5 dodge         1999    16
##  6 dodge         2008    21
##  7 ford          1999    15
##  8 ford          2008    10
##  9 honda         1999     5
## 10 honda         2008     4
## # … with 20 more rows
…
