Capítulo 2 Funcionamiento básico de R | Geología Numérica: Ciencia de Datos para Geociencias
…
lst[[1]]

## [1] 1 2 3 4 5

lst[[1]][3]

## [1] 3

Para acceder a los datos de una matriz o tabla (DataFrame o tibble) se usan los corchetes cuadrados [,], donde el espacio antes de la coma se usa para seleccionar filas y el espacio después para seleccionar columnas (de acuerdo al numero, o al nombre para tablas).

En tablas, para acceder a una columna como vector se pueden usar los dobles corchetes [[]] o el operados $.

dat1[,1] # primer columna

## # A tibble: 654 x 1
##      Age
##    <int>
##  1     9
##  2     8
##  3     7
##  4     9
##  5     9
##  6     8
##  7     6
##  8     6
##  9     8
## 10     9
## # … with 644 more rows
…
## # A tibble: 1 x 5
##     Age LungCap Height Gender Smoke
##   <int>   <dbl>  <dbl> <chr>  <chr>
## 1     9    3.12     57 female no

dat1[1,1] # elemento en primer fila y columna

## # A tibble: 1 x 1
##     Age
##   <int>
## 1     9

dat1[,1:3] # columnas de la 1 a la 3

## # A tibble: 654 x 3
##      Age LungCap Height
##    <int>   <dbl>  <dbl>
##  1     9    3.12   57  
##  2     8    3.17   67.5
##  3     7    3.16   54.5
##  4     9    2.67   53  
##  5     9    3.68   57  
##  6     8    5.01   61  
##  7     6    3.76   58  
##  8     6    2.24   56  
##  9     8    3.96   58.5
## 10     9    3.83   60  
## # … with 644 more rows

dat1[,c(1,3,5)] # columnas 1, 3, y 5

## # A tibble: 654 x 3
##      Age Height Smoke
##    <int>  <dbl> <chr>
##  1     9   57   no   
##  2     8   67.5 no   
##  3     7   54.5 no   
##  4     9   53   no   
##  5     9   57   no   
##  6     8   61   no   
##  7     6   58   no   
##  8     6   56   no   
##  9     8   58.5 no   
## 10     9   60   no   
## # … with 644 more rows

dat1[,c("Age","Height")] # columnas por nombre

## # A tibble: 654 x 2
##      Age Height
##    <int>  <dbl>
##  1     9   57  
##  2     8   67.5
##  3     7   54.5
##  4     9   53  
##  5     9   57  
##  6     8   61  
##  7     6   58  
##  8     6   56  
##  9     8   58.5
## 10     9   60  
## # … with 644 more rows

head(dat1[["Age"]]) # columna como vector

## [1] 9 8 7 9 9 8

head(dat1$Age) # columna como vector

## [1] 9 8 7 9 9 8

dat1["Age"] # columna por nombre

## # A tibble: 654 x 1
##      Age
##    <int>
##  1     9
##  2     8
##  3     7
##  4     9
##  5     9
##  6     8
##  7     6
##  8     6
##  9     8
## 10     9
## # … with 644 more rows
…
