Capítulo 16 Estadística No Paramétrica | Geología Numérica: Ciencia de Datos para Geociencias
…
calculate: Lo que se quiere estimar es la diferencia de medias ('diff in means'), y por ser éste el caso es necesario definir el orden (order) de la diferencia, donde se realiza primero - segundo.

Este proceso genera el remuestreo con el estadístico (stat) deseado. A partir de estos datos se puede: obtener el intervalo de confianza (get_ci), visualizar la distribución del estadístico (diferencia de medias) y sobreponerle el intervalo de confianza (Figura 16.15).

set.seed(101)
a = .05

boots = braq %>% 
  specify(response = values, explanatory = ind) %>% 
  generate(reps = 1000) %>% 
  calculate(stat = 'diff in means', order = c('A','B'))
boots

## # A tibble: 1,000 x 2
##    replicate   stat
##        <int>  <dbl>
##  1         1 0.122 
##  2         2 0.0556
##  3         3 0.0892
##  4         4 0.195 
##  5         5 0.217 
##  6         6 0.233 
##  7         7 0.0167
##  8         8 0.245 
##  9         9 0.0500
## 10        10 0.0889
## # … with 990 more rows
…
# avg2 = as_mapper(~ .x %>% analysis %>% pull(1) %>% mean)
# avg3 = compose(mean, partial(pull, var=1), analysis)

m = m %>% 
  mutate(avg = map_dbl(splits, ~avg(.)),
         d = map_dbl(splits, ~d(.)),
         )
m

## # A tibble: 1,000 x 4
##    splits        id              avg      d
##    <list>        <chr>         <dbl>  <dbl>
##  1 <split [8/4]> Bootstrap0001  21.5  0.655
##  2 <split [8/3]> Bootstrap0002  23.3  1.22 
##  3 <split [8/2]> Bootstrap0003  21.9  0.548
##  4 <split [8/2]> Bootstrap0004  21.7  0.704
##  5 <split [8/3]> Bootstrap0005  21.3  0.369
##  6 <split [8/4]> Bootstrap0006  19.4 -0.234
##  7 <split [8/4]> Bootstrap0007  22.5  1.16 
##  8 <split [8/4]> Bootstrap0008  20.6  0.154
##  9 <split [8/2]> Bootstrap0009  20.8  0.237
## 10 <split [8/2]> Bootstrap0010  20.5  0.189
## # … with 990 more rows
…
