Capitulo 5 Iteracion con purrr | Geologia Numerica: Ciencia de Datos para Geociencias
…
Una vez se tiene le objeto con los nombres de los archivos (‘archivos’), se puede proceder a realizar la iteracion. Como estamos importando archivos de texto (.csv) usamos la funcion import del paquete rio.

Primeramente podemos generar una lista donde iteramos sobre el objeto ‘archivos’ e importamos cada uno, para posteriormente “pegar” uno tras otro con la funcion bind_rows de dplyr.

map(archivos, import) %>% 
  bind_rows()

## # A tibble: 144 x 5
##    fecha    nombre             matematica ingles matricula
##    <chr>    <chr>                   <int>  <int>     <int>
##  1 1/1/2015 Hernandez, Rodrigo         90     60       100
##  2 1/2/2015 Hernandez, Rodrigo         85     70       100
##  3 1/3/2015 Hernandez, Rodrigo         70     80       100
##  4 1/4/2015 Hernandez, Rodrigo         75     85       100
##  5 1/5/2015 Hernandez, Rodrigo         70     90       100
##  6 1/6/2015 Hernandez, Rodrigo         66     90       100
##  7 1/1/2015 Sanchez, Juan              60     80       102
##  8 1/2/2015 Sanchez, Juan              70     80       102
##  9 1/3/2015 Sanchez, Juan              80     90       102
## 10 1/4/2015 Sanchez, Juan              85     85       102
## # … with 134 more rows

Con lo anterior logramos generar una tabla con todos los datos pero no sabemos cuales datos correponden con cual archivo (y consecuentemente con que nivel). Para remediar lo anterior la funcion bind_rows tiene un argumento .id, al cual se le pasa el nombre de la columna que se quiere agregar mostrando el nombre del archivo al cual pertence cada observacion.

archivos %>%
  map_dfr(import, .id = "archivo")

## # A tibble: 144 x 6
##    archivo                  fecha    nombre          matematica ingles matricula
##    <chr>                    <chr>    <chr>                <int>  <int>     <int>
##  1 data/datos_cuarto_grado… 1/1/2015 Hernandez, Rod…         90     60       100
##  2 data/datos_cuarto_grado… 1/2/2015 Hernandez, Rod…         85     70       100
##  3 data/datos_cuarto_grado… 1/3/2015 Hernandez, Rod…         70     80       100
##  4 data/datos_cuarto_grado… 1/4/2015 Hernandez, Rod…         75     85       100
##  5 data/datos_cuarto_grado… 1/5/2015 Hernandez, Rod…         70     90       100
##  6 data/datos_cuarto_grado… 1/6/2015 Hernandez, Rod…         66     90       100
##  7 data/datos_cuarto_grado… 1/1/2015 Sanchez, Juan           60     80       102
##  8 data/datos_cuarto_grado… 1/2/2015 Sanchez, Juan           70     80       102
##  9 data/datos_cuarto_grado… 1/3/2015 Sanchez, Juan           80     90       102
## 10 data/datos_cuarto_grado… 1/4/2015 Sanchez, Juan           85     85       102
## # … with 134 more rows

La siguiente situacion que podemos encontrar es que el nombre del archivo (o cualquier otra columna de la tabla) tiene mas informacion de la necesaria, por lo que hay que separar los contenidos de la columna. Para esto usamos separate de tidyr para separar la columna en varias. En el caso de la columna ‘archivo’ podemos esperar tres columnas si especificamos el separador (sep = '_'), pero hay columnas que no ofrecen ninguna informacion (de las 3, la 1 y la 3, la 2 es la que tiene el nombre del nivel); para descartar estas columnas a la hora de separarlas se puede incluir NA en la posicion de las columnas que se desea descartar.

archivos %>%
  map_dfr(import, .id = "archivo") %>% 
  separate(archivo, into = letters[1:3], sep = '_')

## # A tibble: 144 x 8
##    a         b      c        fecha   nombre          matematica ingles matricula
##    <chr>     <chr>  <chr>    <chr>   <chr>                <int>  <int>     <int>
##  1 data/dat… cuarto grado.c… 1/1/20… Hernandez, Rod…         90     60       100
##  2 data/dat… cuarto grado.c… 1/2/20… Hernandez, Rod…         85     70       100
##  3 data/dat… cuarto grado.c… 1/3/20… Hernandez, Rod…         70     80       100
##  4 data/dat… cuarto grado.c… 1/4/20… Hernandez, Rod…         75     85       100
##  5 data/dat… cuarto grado.c… 1/5/20… Hernandez, Rod…         70     90       100
##  6 data/dat… cuarto grado.c… 1/6/20… Hernandez, Rod…         66     90       100
##  7 data/dat… cuarto grado.c… 1/1/20… Sanchez, Juan           60     80       102
##  8 data/dat… cuarto grado.c… 1/2/20… Sanchez, Juan           70     80       102
##  9 data/dat… cuarto grado.c… 1/3/20… Sanchez, Juan           80     90       102
## 10 data/dat… cuarto grado.c… 1/4/20… Sanchez, Juan           85     85       102
## # … with 134 more rows

archivos %>%
  map_dfr(import, .id = "archivo") %>% 
  separate(archivo, into = c(NA, 'grado', NA), sep = '_')

## # A tibble: 144 x 6
##    grado  fecha    nombre             matematica ingles matricula
##    <chr>  <chr>    <chr>                   <int>  <int>     <int>
##  1 cuarto 1/1/2015 Hernandez, Rodrigo         90     60       100
##  2 cuarto 1/2/2015 Hernandez, Rodrigo         85     70       100
##  3 cuarto 1/3/2015 Hernandez, Rodrigo         70     80       100
##  4 cuarto 1/4/2015 Hernandez, Rodrigo         75     85       100
##  5 cuarto 1/5/2015 Hernandez, Rodrigo         70     90       100
##  6 cuarto 1/6/2015 Hernandez, Rodrigo         66     90       100
##  7 cuarto 1/1/2015 Sanchez, Juan              60     80       102
##  8 cuarto 1/2/2015 Sanchez, Juan              70     80       102
##  9 cuarto 1/3/2015 Sanchez, Juan              80     90       102
## 10 cuarto 1/4/2015 Sanchez, Juan              85     85       102
## # … with 134 more rows

Por ultimo, en este caso tambien se puede separar la columna ‘nombre’ en ‘apellido’ y ‘nombre’, usando los mismos principios anteriores.

archivos %>%
  map_dfr(import, .id = "archivo") %>% 
  separate(archivo, into = c(NA, 'grado', NA), sep = '_') %>% 
  separate(nombre, into = c('apellido', 'nombre'), sep = ', ')

## # A tibble: 144 x 7
##    grado  fecha    apellido  nombre  matematica ingles matricula
##    <chr>  <chr>    <chr>     <chr>        <int>  <int>     <int>
##  1 cuarto 1/1/2015 Hernandez Rodrigo         90     60       100
##  2 cuarto 1/2/2015 Hernandez Rodrigo         85     70       100
##  3 cuarto 1/3/2015 Hernandez Rodrigo         70     80       100
##  4 cuarto 1/4/2015 Hernandez Rodrigo         75     85       100
##  5 cuarto 1/5/2015 Hernandez Rodrigo         70     90       100
##  6 cuarto 1/6/2015 Hernandez Rodrigo         66     90       100
##  7 cuarto 1/1/2015 Sanchez   Juan            60     80       102
##  8 cuarto 1/2/2015 Sanchez   Juan            70     80       102
##  9 cuarto 1/3/2015 Sanchez   Juan            80     90       102
## 10 cuarto 1/4/2015 Sanchez   Juan            85     85       102
## # … with 134 more rows
…
En este caso 2 se trabaja con los datos de ‘gapminder’, donde se agrupa por pais (‘country’), y se crea una tabla para cada pais. Este caso es bastante ilustrativo del poder de los tibbles y la iteracion, ya que la tabla anidada cuenta con 142 filas (1 por pais), y si se quisiera realizar una tarea por pais a pie, seria muy tedioso y poco eficiente.

gap_nest = gapminder %>% 
  group_by(country) %>% 
  nest()

De manera similar al caso 1, se genera un modelo lineal para cada pais en funcion de la expectativa de vida (‘lifeExp’) por anho (‘year’), y adicionalmente se calcula el coeficiente de determinacion (\(R^2\)) para cada modelo lineal.

gap_nest = gap_nest %>% 
  mutate(mod = map(data, ~lm(lifeExp ~ year, data = .x))) %>% 
  mutate(r2 = map_dbl(mod, ~glance(.) %>% pull(r.squared)))
gap_nest

## # A tibble: 142 x 4
##    country     data              mod       r2
##    <fct>       <list>            <list> <dbl>
##  1 Afghanistan <tibble [12 × 5]> <lm>   0.948
##  2 Albania     <tibble [12 × 5]> <lm>   0.911
##  3 Algeria     <tibble [12 × 5]> <lm>   0.985
##  4 Angola      <tibble [12 × 5]> <lm>   0.888
##  5 Argentina   <tibble [12 × 5]> <lm>   0.996
##  6 Australia   <tibble [12 × 5]> <lm>   0.980
##  7 Austria     <tibble [12 × 5]> <lm>   0.992
##  8 Bahrain     <tibble [12 × 5]> <lm>   0.967
##  9 Bangladesh  <tibble [12 × 5]> <lm>   0.989
## 10 Belgium     <tibble [12 × 5]> <lm>   0.995
## # … with 132 more rows
…
