Capítulo 18 Secuencias de Datos | Geología Numérica: Ciencia de Datos para Geociencias
…
Huron = LakeHuron %>% tidy()
Huron

## # A tibble: 98 x 2
##    index value
##    <dbl> <dbl>
##  1  1875  580.
##  2  1876  582.
##  3  1877  581.
##  4  1878  581.
##  5  1879  580.
##  6  1880  580.
##  7  1881  580.
##  8  1882  581.
##  9  1883  581.
## 10  1884  581.
## # … with 88 more rows
…
Otra forma de remover la tendencia es obteniendo los residuales a partir de la regresión. Lo anterior se puede obtener de forma sencilla aplicando la función augment de broom sobre el objeto de regresión. El objeto resultante va a tener los datos usados en la regresión así como otras columnas, incluida .resid que almacena los residuales.

Huron.aug = huron.reg %>% augment()
Huron.aug

## # A tibble: 98 x 9
##    value index .fitted .se.fit .resid   .hat .sigma  .cooksd .std.resid
##    <dbl> <dbl>   <dbl>   <dbl>  <dbl>  <dbl>  <dbl>    <dbl>      <dbl>
##  1  580.  1875    580.   0.227  0.202 0.0402   1.14 0.000698      0.183
##  2  582.  1876    580.   0.223  1.71  0.0390   1.12 0.0481        1.54 
##  3  581.  1877    580.   0.220  0.841 0.0378   1.13 0.0113        0.758
##  4  581.  1878    580.   0.216  0.695 0.0366   1.13 0.00745       0.626
##  5  580.  1879    580.   0.213 -0.291 0.0355   1.14 0.00126      -0.262
##  6  580.  1880    580.   0.209  0.333 0.0343   1.14 0.00160       0.300
##  7  580.  1881    580.   0.206  0.387 0.0332   1.14 0.00209       0.349
##  8  581.  1882    580.   0.203  0.812 0.0322   1.13 0.00885       0.730
##  9  581.  1883    580.   0.199  1.42  0.0311   1.13 0.0260        1.27 
## 10  581.  1884    580.   0.196  1.36  0.0301   1.13 0.0232        1.22 
## # … with 88 more rows
…
\[\begin{equation}
  t_{\tau} = r_{\tau}\sqrt{\frac{N-\tau-2}{1-r_{\tau}^2}}
  \tag{18.8}
\end{equation}\]

\(H_0: \rho_{\tau} = 0 \to\) No hay relación entre las series

\(H_1: \rho_{\tau} \neq 0 \to\) Hay relación entre las series al lag \(\tau\)

Para demostrar este análisis se usa un ejemplo de Davis (2002), donde se tienen los datos de agua inyectada en un pozo y el número de sismos por mes, buscando si existe una relación entre el agua inyectada y los sismos, y si la hay con que frecuencia o desfase.

arsenal = import('data/ARSENAL.csv',setclass = 'tbl')
arsenal

## # A tibble: 40 x 4
##    Date    WasteInjected Quakes SequentialMonth
##    <chr>           <dbl>  <int>           <int>
##  1 3/1/62            4.2      0               3
##  2 4/1/62            7.2      2               4
##  3 5/1/62            8.4     12               5
##  4 6/1/62            8       35               6
##  5 7/1/62            5.2     23               7
##  6 8/1/62            6       29               8
##  7 9/1/62            5       24               9
##  8 10/1/62           5.6      8              10
##  9 11/1/62           4        6              11
## 10 12/1/62           3.6     20              12
## # … with 30 more rows
…
Figura 18.14: Serie temporal de sismos usando zoo

Para ejemplificar una serie espacial y con intervalo irregular se usan los datos de un sondeo magnético.

mag = import('data/magnetismo.xlsx',setclass = 'tbl')
mag

## # A tibble: 132 x 2
##    Position Anomaly
##       <dbl>   <dbl>
##  1    0        128.
##  2    0.667    130.
##  3    1.33     132.
##  4    2        134.
##  5    2.67     137.
##  6    3.33     140.
##  7    4.00     143.
##  8    4.67     145.
##  9    5.33     147.
## 10    6        149.
## # … with 122 more rows
…
